Tidy Finance with R: Some notes - 1 Introduction to Tidy Finance
…
1  Introduction to Tidy Finance

library(tidyverse)
library(tidyquant)

prices <- tq_get("AAPL",
                 get = "stock.prices",
                 from = "2000-01-01",
                 to = "2021-12-31"
)
prices

# A tibble: 5,535 × 8
   symbol date        open  high   low close     volume adjusted
   <chr>  <date>     <dbl> <dbl> <dbl> <dbl>      <dbl>    <dbl>
 1 AAPL   2000-01-03 0.936 1.00  0.908 0.999  535796800    0.849
 2 AAPL   2000-01-04 0.967 0.988 0.903 0.915  512377600    0.778
 3 AAPL   2000-01-05 0.926 0.987 0.920 0.929  778321600    0.789
 4 AAPL   2000-01-06 0.948 0.955 0.848 0.848  767972800    0.721
 5 AAPL   2000-01-07 0.862 0.902 0.853 0.888  460734400    0.755
 6 AAPL   2000-01-10 0.911 0.913 0.846 0.873  505064000    0.742
 7 AAPL   2000-01-11 0.857 0.887 0.808 0.828  441548800    0.704
 8 AAPL   2000-01-12 0.848 0.853 0.772 0.778  976068800    0.662
 9 AAPL   2000-01-13 0.844 0.882 0.826 0.864 1032684800    0.734
10 AAPL   2000-01-14 0.893 0.913 0.887 0.897  390376000    0.762
# ℹ 5,525 more rows
…
returns <- 
  prices |>
  arrange(date) |>
  mutate(ret = adjusted / lag(adjusted) - 1) |>
  select(symbol, date, ret)
returns

# A tibble: 5,535 × 3
   symbol date           ret
   <chr>  <date>       <dbl>
 1 AAPL   2000-01-03 NA     
 2 AAPL   2000-01-04 -0.0843
 3 AAPL   2000-01-05  0.0146
 4 AAPL   2000-01-06 -0.0865
 5 AAPL   2000-01-07  0.0474
 6 AAPL   2000-01-10 -0.0176
 7 AAPL   2000-01-11 -0.0512
 8 AAPL   2000-01-12 -0.0600
 9 AAPL   2000-01-13  0.110 
10 AAPL   2000-01-14  0.0381
# ℹ 5,525 more rows
…
1.1 Scaling Up the Analysis

ticker <- tq_index("DOW")

Getting holdings for DOW

ticker

# A tibble: 31 × 8
   symbol company      identifier sedol weight sector shares_held local_currency
   <chr>  <chr>        <chr>      <chr>  <dbl> <chr>        <dbl> <chr>         
 1 UNH    UNITEDHEALT… 91324P102  2917… 0.0966 -          5504172 USD           
 2 GS     GOLDMAN SAC… 38141G104  2407… 0.0634 -          5504172 USD           
 3 MSFT   MICROSOFT C… 594918104  2588… 0.0613 -          5504172 USD           
 4 MCD    MCDONALD S … 580135101  2550… 0.0583 -          5504172 USD           
 5 HD     HOME DEPOT … 437076102  2434… 0.0569 -          5504172 USD           
 6 AMGN   AMGEN INC    031162100  2023… 0.0459 -          5504172 USD           
 7 V      VISA INC CL… 92826C839  B2PZ… 0.0457 -          5504172 USD           
 8 CAT    CATERPILLAR… 149123101  2180… 0.0415 -          5504172 USD           
 9 CRM    SALESFORCE … 79466L302  2310… 0.0402 -          5504172 USD           
10 BA     BOEING CO/T… 097023105  2108… 0.0399 -          5504172 USD           
# ℹ 21 more rows
…
