Tidy Finance with R: Some notes - 8 Size Sorts and p-Hacking: Original code
…
p_hacking_results <- p_hacking_setup |>
  mutate(data = map_chr(data, deparse)) |>
  unnest(size_premium) |>
  arrange(desc(size_premium))

p_hacking_results

# A tibble: 48 × 5
   n_portfolios exchanges value_weighted data                       size_premium
          <dbl> <list>    <lgl>          <chr>                             <dbl>
 1           10 <chr [3]> FALSE          "filter(crsp_monthly, mon…      0.0164 
 2           10 <chr [3]> FALSE          "filter(crsp_monthly, ind…      0.0134 
 3           10 <chr [3]> FALSE          "crsp_monthly"                  0.0116 
 4           10 <chr [3]> TRUE           "filter(crsp_monthly, mon…      0.00782
 5            5 <chr [3]> FALSE          "filter(crsp_monthly, mon…      0.00740
 6           10 <chr [3]> TRUE           "filter(crsp_monthly, ind…      0.00729
 7           10 <chr [3]> FALSE          "filter(crsp_monthly, mon…      0.00667
 8           10 <chr [3]> TRUE           "crsp_monthly"                  0.00612
 9            5 <chr [3]> FALSE          "filter(crsp_monthly, ind…      0.00568
10            5 <chr [3]> FALSE          "crsp_monthly"                  0.00472
# ℹ 38 more rows
…
